<svg xmlns="http://www.w3.org/2000/svg" xmlns:xlink="http://www.w3.org/1999/xlink" width="0" height="0" style="position:absolute">

    <symbol id="sidebar-logo" viewBox="0 0 364.6 151.3">
        <g>
            <path   d="M109.1,34.7c-8.2,0-14.5-6.4-14.5-15.3c0-9,6.3-15.3,14.5-15.3c4.3,0,8.2,2.3,10.3,5.5l3.9-2.2   c-3-4.2-7.6-7.4-14.2-7.4C98.3,0,89.8,7.9,89.8,19.4c0,11.5,8.5,19.4,19.3,19.4c6.6,0,11.2-3.2,14.3-7.4l-4-2.2   C117.2,32.4,113.4,34.7,109.1,34.7z"/>
            <path   d="M200.8,0.6h-15.1v37.6h4.7V23.3h10.4c7.4,0,11.8-5.2,11.8-11.3C212.6,5.8,208.4,0.6,200.8,0.6z M200.3,19.1   h-9.9V4.8h9.9c4.5,0,7.5,2.9,7.5,7.2C207.8,16.2,204.7,19.1,200.3,19.1z"/>
            <rect x="229.5" y="0.6"   width="4.7" height="37.6"/>
            <polygon   points="251.6,4.8 263.5,4.8 263.5,38.2 268.2,38.2 268.2,4.8 280.1,4.8 280.1,0.6 251.6,0.6  "/>
            <polygon   points="347.1,0.6 342.5,0.6 342.5,38.2 364.6,38.2 364.6,34 347.1,34  "/>
            <polygon   points="150.2,0.6 135.1,38.2 140.1,38.2 153.1,5.5 165.9,38.2 171.1,38.2 156,0.6  "/>
            <polygon   points="306.9,0.6 291.8,38.2 296.8,38.2 309.8,5.5 322.7,38.2 327.8,38.2 312.7,0.6  "/>
        </g>
        <g>
            <polygon   points="215.1,106.6 206.5,75.3 202.6,75.3 194,106.6 185.7,75.3 180.5,75.3 191.2,112.8 196.3,112.8    204.5,82.5 212.8,112.8 217.9,112.8 228.6,75.3 223.4,75.3  "/>
            <polygon   points="89.8,79.4 101.6,79.4 101.6,112.8 106.3,112.8 106.3,79.4 118.3,79.4 118.3,75.2 89.8,75.2  "/>
            <path   d="M147.9,74.6c-11.2,0-18.6,8.3-18.6,19.4c0,11.1,7.5,19.4,18.6,19.4c11.1,0,18.6-8.3,18.6-19.4   C166.5,82.9,159,74.6,147.9,74.6z M147.9,109.3c-8.4,0-13.8-6.5-13.8-15.3c0-8.8,5.4-15.3,13.8-15.3c8.4,0,13.8,6.5,13.8,15.3   C161.7,102.7,156.3,109.3,147.9,109.3z"/>
            <polygon   points="246.1,112.8 270.7,112.8 270.7,108.6 250.8,108.6 250.8,95.7 270.3,95.7 270.3,91.5 250.8,91.5    250.8,79.4 270.7,79.4 270.7,75.2 246.1,75.2  "/>
            <path   d="M337.3,84.8c0-3.6,3.2-6,7.7-6c4.1,0,8.1,1.4,10.9,4.5l2.8-3.4c-3.2-3.3-7.6-5.2-13.3-5.2   c-7.4,0-12.9,4.2-12.9,10.4c0,13.4,22.2,8.1,22.2,17.7c0,2.9-2.1,6.5-8.8,6.5c-5.3,0-9.3-2.6-11.8-5.4l-2.8,3.6   c3.1,3.5,7.9,6,14.4,6c10.1,0,13.9-5.6,13.9-11C359.6,88.4,337.3,93.2,337.3,84.8z"/>
            <path   d="M315.1,86.5c0-6.9-4.9-11.3-11.8-11.3h-15.1v37.6h4.7V79.4h9.9c4.4,0,7.5,2.9,7.5,7.2c0,4.2-3,7.2-7.5,7.2h-5   l12.2,19h5.5l-10.1-15.3C310.5,97,315.1,93.3,315.1,86.5z"/>
        </g>
        <g>
            <rect y="0"   width="4.8" height="151.3"/>
            <rect x="16.5" y="0"   width="4.8" height="151.3"/>
            <rect x="33" y="0"   width="4.8" height="113.4"/>
        </g>
    </symbol>
    <symbol id="star" viewBox="0 0 19.481 19.481" enable-background="new 0 0 19.481 19.481">
        <g>
            <path d="m10.201,.758l2.478,5.865 6.344,.545c0.44,0.038 0.619,0.587 0.285,0.876l-4.812,4.169 1.442,6.202c0.1,0.431-0.367,0.77-0.745,0.541l-5.452-3.288-5.452,3.288c-0.379,0.228-0.845-0.111-0.745-0.541l1.442-6.202-4.813-4.17c-0.334-0.289-0.156-0.838 0.285-0.876l6.344-.545 2.478-5.864c0.172-0.408 0.749-0.408 0.921,0z"/>
        </g>
    </symbol>
    <symbol id="fivestars" viewBox="0 0 2501.1 462.8">
        <g>
            <path d="M360.9,406.8c-0.1,0-0.3,0-0.4-0.1L286,367.7l74.5,39c0.1,0,0.3,0.1,0.4,0.1c0.4,0,0.8-0.4,0.8-0.8l0,0
                C361.6,406.4,361.3,406.8,360.9,406.8z"/>
            <path d="M431.2,189.7l-91.6,89.9l0,0.1l91.6-89.9c0.1-0.1,0.2-0.2,0.2-0.5C431.4,189.5,431.3,189.6,431.2,189.7z"/>
            <path d="M133.8,407.4l-0.1,0.1c0,0,0,0,0.1,0l0.1-0.1l113.2-60l-0.1,0L133.8,407.4z"/>
            <path d="M62.4,189.7l126.9-18.9l56.3-115c0.1-0.3,0.4-0.5,0.7-0.5c0.2,0,0.4,0.1,0.5,0.2c-0.1-0.2-0.4-0.3-0.6-0.3
                c-0.3,0-0.6,0.2-0.7,0.5l-56.3,115L62.4,189.7c-0.2-0.1-0.6,0.1-0.7,0.5c0,0.1,0,0.2,0,0.2c0,0,0-0.1,0-0.1
                C61.9,189.8,62.3,189.7,62.4,189.7z"/>
            <polygon points="154,280.2 150.9,298.4 154,280.3 "/>
            <path fill="#fff" d="M0,0v462.8h2501.1V0H0z M445,204.3l-83.8,82.2l20.1,114.8c0.3,1.5,0.5,3,0.5,4.7c0,11.5-9.3,20.8-20.8,20.8
                c-3.2,0-6.4-0.8-9.4-2.3l-0.2-0.1L247.2,370l-103.9,55.1c-2.7,1.4-5.5,2.2-8.5,2.4c-0.4,0-0.9,0-1.3,0h-1c-4-0.2-8-1.6-11.2-4
                c-6.4-4.6-9.7-12.6-8.3-20.4l19.5-115.8l-84.4-81.8c-5.7-5.5-7.9-13.9-5.4-21.4s8.9-12.9,16.7-14.1l116.5-17.4L227.6,47
                c3.3-6.8,10-11.2,17.5-11.6c0.3,0,0.7,0,1.1,0h1.2c7.5,0.4,14.1,4.7,17.5,11.5l52.4,105.3l116.5,16.6c7.9,1.2,14.3,6.6,16.7,14.1
                C453,190.5,450.8,198.8,445,204.3z M947.6,204.4l-83.8,82.2l20.1,114.8c0.3,1.5,0.5,3,0.5,4.7c0,11.5-9.3,20.8-20.8,20.8
                c-3.2,0-6.4-0.8-9.4-2.3l-0.2-0.1L749.8,370l-103.9,55.1c-2.7,1.4-5.5,2.2-8.5,2.4c0,0,0.1,0,0.1,0c0,0-0.1,0-0.1,0
                c-0.4,0-0.8,0-1.2,0h-1h-0.1c-4-0.2-8-1.6-11.2-4c-6.4-4.6-9.7-12.6-8.3-20.4l19.5-115.9l-84.4-81.8c-5.7-5.5-7.9-13.9-5.4-21.4
                s8.9-12.9,16.7-14.1l116.5-17.3L730.2,47c3.3-6.8,10-11.2,17.5-11.6h0.1c0.3,0,0.7,0,1.1,0h1.1h0.1H750c7.5,0.4,14.1,4.7,17.5,11.5
                l52.4,105.4l116.5,16.6c7.9,1.2,14.3,6.6,16.7,14.1C955.6,190.6,953.4,198.9,947.6,204.4z M1450.3,204.3l-83.8,82.2l20.1,114.8
                c0.3,1.5,0.5,3,0.5,4.7c0,11.5-9.3,20.8-20.8,20.8c-3.2,0-6.4-0.8-9.4-2.3l-0.2-0.1L1252.5,370l-103.9,55.1
                c-2.7,1.4-5.5,2.2-8.5,2.4c-0.4,0-0.9,0-1.3,0h-1c-4-0.2-8-1.6-11.2-4c-6.4-4.6-9.7-12.6-8.3-20.4l19.5-115.9l-84.4-81.8
                c-5.7-5.5-7.9-13.9-5.4-21.4s8.9-12.9,16.7-14.1l116.5-17.3L1232.9,47c3.3-6.8,10-11.2,17.5-11.6c0.3,0,0.7,0,1.1,0h1.2
                c7.5,0.4,14.1,4.7,17.5,11.5l52.4,105.3l116.5,16.6c7.9,1.2,14.3,6.6,16.7,14.1C1458.3,190.5,1456.1,198.8,1450.3,204.3z
                 M1952.8,204.3l-83.8,82.2l20.1,114.8c0.6,2,0.7,4.2,0.5,6.8c-0.6,7.7-5.5,14.6-12.8,17.2c-6,2.2-11.9,1.9-17.3-0.8l-0.2-0.1
                L1755.1,370l-103.8,55.1c-2.7,1.4-5.5,2.2-8.5,2.4c-0.4,0-0.9,0-1.3,0h-1c-4-0.2-8-1.6-11.2-4c-6.4-4.6-9.7-12.6-8.3-20.4
                l19.3-115.9l-84.4-81.8c-5.7-5.5-7.9-13.9-5.4-21.4s8.9-12.9,16.7-14.1l116.5-17.3L1735.4,47c3.3-6.8,10-11.2,17.5-11.6h0.2
                c0.3,0,0.7,0,1.1,0h1h0.2h-0.2c7.5,0.4,14.1,4.7,17.5,11.5l52.4,105.3l116.5,16.6c7.9,1.2,14.3,6.6,16.7,14.1
                C1960.8,190.5,1958.6,198.8,1952.8,204.3z M2455.4,204.3l-83.8,82.2l20.1,114.8c0.6,2,0.7,4.2,0.5,6.8c-0.6,7.7-5.5,14.6-12.8,17.2
                c-6,2.2-11.9,1.9-17.3-0.8l-0.2-0.1L2257.7,370l-103.8,55.2c-2.7,1.4-5.5,2.2-8.5,2.4h-2.3c-4-0.2-8-1.6-11.2-4
                c-6.4-4.6-9.7-12.6-8.3-20.4l19.5-115.9l-84.4-81.8c-5.7-5.5-7.9-13.9-5.4-21.4s8.9-12.9,16.7-14.1l116.3-17.4L2238,47
                c3.3-6.8,10-11.2,17.5-11.6h0.2c0.3,0,0.7,0,1.1,0h1h0.2h-0.2c7.5,0.4,14.1,4.7,17.5,11.5l52.4,105.3l116.5,16.6
                c7.9,1.2,14.3,6.6,16.7,14.1C2463.4,190.5,2461.2,198.8,2455.4,204.3z"/>
            <path fill="#EDAB11" d="M433.8,168.8l-116.5-16.6L264.9,46.9c-3.4-6.8-10-11.1-17.5-11.5h-1.2c-0.4,0-0.8,0-1.1,0
                c-7.5,0.4-14.2,4.8-17.5,11.6l-51.7,105.6L59.4,170c-7.8,1.2-14.2,6.6-16.7,14.1s-0.3,15.9,5.4,21.4l84.4,81.8L113,403.1
                c-1.4,7.8,1.9,15.8,8.3,20.4c3.2,2.4,7.2,3.8,11.2,4h1c0.4,0,0.9,0,1.3,0c3-0.2,5.8-1,8.5-2.4L247.2,370l104.2,54.4l0.2,0.1
                c3,1.5,6.2,2.3,9.4,2.3c11.5,0,20.8-9.3,20.8-20.8c0-1.7-0.2-3.2-0.5-4.7l-20.1-114.8l83.8-82.2c5.8-5.5,8-13.8,5.5-21.4
                C448.1,175.4,441.7,170,433.8,168.8z M431.2,189.8l-91.6,89.9l21.9,125.5l0.1,0.6l0.1,0.2c0,0,0,0,0,0.1l0,0c0,0.4-0.4,0.8-0.8,0.8
                c-0.1,0-0.3-0.1-0.4-0.1l-74.5-39l-39-20.4l-113.2,60l-0.1,0.1c0,0-0.1,0-0.1,0c0,0,0,0-0.1,0c0,0-0.1,0-0.1,0
                c-0.2,0-0.3,0-0.4-0.1l-0.1-0.1c-0.2-0.1-0.4-0.4-0.3-0.8l18.2-108.1l3-18.2l-92-89.2l-0.1-0.1c-0.2-0.2-0.3-0.3-0.2-0.6
                c0-0.1,0-0.2,0-0.2c0.1-0.4,0.5-0.6,0.7-0.6l126.8-18.9l56.3-115c0.1-0.3,0.4-0.5,0.7-0.5c0.2,0,0.5,0.1,0.6,0.3
                c0.1,0.1,0.2,0.2,0.2,0.3l57,114.6l126.7,18c0.2,0.1,0.6,0.2,0.7,0.6c0,0.1,0,0.2,0,0.3C431.4,189.5,431.3,189.7,431.2,189.8z"/>
            <path fill="#EDAB11" d="M361.5,405.3l0.1,0.6l0.1,0.2c0,0,0,0,0-0.1l-0.1-0.2l-0.1-0.6l-21.9-125.5l0,0L361.5,405.3z"/>
            <path fill="#EDAB11" d="M62,191l-0.1-0.1c-0.1-0.1-0.2-0.3-0.2-0.5C61.6,190.6,61.7,190.8,62,191L62,191l92,89.3l0-0.1L62,191z"/>
            <path fill="#EDAB11" d="M304,170.5l126.7,18c0.2,0,0.6,0.2,0.7,0.6c0,0.1,0,0.1,0,0.2c0-0.1,0-0.2,0-0.3c-0.1-0.4-0.5-0.5-0.7-0.6
                l-126.7-18L247,55.8c0-0.1-0.1-0.2-0.2-0.3c0,0.1,0.1,0.1,0.1,0.2L304,170.5z"/>
            <path fill="#EDAB11" d="M133.1,407.3c-0.1-0.1-0.3-0.3-0.3-0.8l18.1-108.1l-18.2,108.1c-0.1,0.4,0.1,0.7,0.3,0.8H133.1
                c0.1,0.2,0.2,0.2,0.4,0.2c0,0,0.1,0,0.1,0C133.5,407.5,133.3,407.5,133.1,407.3L133.1,407.3z"/>
            <polygon fill="#EDAB11" points="247.1,347.4 286,367.7 247.1,347.4 	"/>
            <path fill="#EDAB11" d="M936.4,168.9l-116.5-16.6L767.5,46.9c-3.4-6.8-10-11.1-17.5-11.5h-1.1c-0.4,0-0.8,0-1.1,0h-0.1
                c-7.5,0.4-14.2,4.8-17.5,11.6l-51.7,105.6L562,169.9c-7.8,1.2-14.2,6.6-16.7,14.1s-0.3,15.9,5.4,21.4l84.4,81.8l-19.5,115.9
                c-1.4,7.8,1.9,15.8,8.3,20.4c3.2,2.4,7.2,3.8,11.2,4h0.1h1c0.4,0,0.8,0,1.2,0c3-0.2,5.8-1,8.5-2.4L749.8,370L854,424.5l0.2,0.1
                c3,1.5,6.2,2.3,9.4,2.3c11.5,0,20.8-9.3,20.8-20.8c0-1.7-0.2-3.2-0.5-4.7l-20.1-114.8l83.8-82.2c5.8-5.5,8-13.8,5.5-21.4
                C950.7,175.5,944.3,170.1,936.4,168.9z M933.9,189.7l-91.6,89.9l21.9,125.6l0.1,0.6l0.1,0.2c0,0.4-0.4,0.8-0.8,0.8
                c-0.1,0-0.3-0.1-0.4-0.1l-113.5-59.3l-113.2,60l-0.1,0.1c-0.1,0-0.1,0-0.2,0c-0.1,0-0.3,0-0.4-0.1l-0.1-0.1
                c-0.1-0.1-0.3-0.3-0.3-0.8l21.3-126.3l-92-89.2l-0.1-0.1c-0.1-0.1-0.3-0.4-0.2-0.7c0.1-0.4,0.5-0.6,0.7-0.6l126.8-18.9l56.3-115
                c0.1-0.3,0.4-0.5,0.7-0.5s0.6,0.2,0.7,0.5l57.1,114.7l126.7,18c0.2,0,0.6,0.2,0.7,0.6C934.2,189.4,934,189.6,933.9,189.7z"/>
            <path fill="#EDAB11" d="M1439.1,168.8l-116.5-16.6l-52.4-105.3c-3.4-6.8-10-11.1-17.5-11.5h-1.2c-0.4,0-0.8,0-1.1,0
                c-7.5,0.4-14.2,4.8-17.5,11.6l-51.7,105.6l-116.5,17.3c-7.8,1.2-14.2,6.6-16.7,14.1s-0.3,15.9,5.4,21.4l84.4,81.8l-19.5,115.9
                c-1.4,7.8,1.9,15.8,8.3,20.4c3.2,2.4,7.2,3.8,11.2,4h1c0.4,0,0.9,0,1.3,0c3-0.2,5.8-1,8.5-2.4l103.9-55.1l104.2,54.4l0.2,0.1
                c3,1.5,6.2,2.3,9.4,2.3c11.5,0,20.8-9.3,20.8-20.8c0-1.7-0.2-3.2-0.5-4.7l-20.1-114.8l83.8-82.2c5.8-5.5,8-13.8,5.5-21.4
                C1453.4,175.4,1447,170,1439.1,168.8z M1436.6,189.7l-91.6,89.9l21.9,125.6l0.1,0.6l0.1,0.2c0,0.4-0.4,0.8-0.8,0.8
                c-0.1,0-0.3-0.1-0.4-0.1l-113.5-59.3l-113.2,60l-0.1,0.1c-0.1,0-0.1,0-0.2,0s-0.3,0-0.4-0.1l-0.1-0.1c-0.1-0.1-0.3-0.3-0.3-0.8
                l21.3-126.3l-92-89.2l-0.1-0.1c-0.1-0.1-0.3-0.4-0.2-0.7c0.1-0.4,0.5-0.6,0.7-0.6l126.8-18.9l56.3-115c0.1-0.3,0.4-0.5,0.7-0.5
                c0.3,0,0.6,0.2,0.7,0.5l57.1,114.7l126.7,18c0.2,0,0.6,0.2,0.7,0.6C1436.9,189.4,1436.7,189.6,1436.6,189.7z"/>
            <path fill="#EDAB11" d="M1941.6,168.8l-116.5-16.6l-52.4-105.3c-3.4-6.8-10-11.1-17.5-11.5h-1c-0.4,0-0.8,0-1.1,0h-0.2
                c-7.5,0.4-14.2,4.8-17.5,11.6l-51.7,105.6l-116.5,17.3c-7.8,1.2-14.2,6.6-16.7,14.1s-0.3,15.9,5.4,21.4l84.4,81.8L1621,403.1
                c-1.4,7.8,1.9,15.8,8.3,20.4c3.2,2.4,7.2,3.8,11.2,4h1c0.4,0,0.9,0,1.3,0c3-0.2,5.8-1,8.5-2.4l103.8-55.1l104.2,54.4l0.2,0.1
                c5.4,2.7,11.3,3,17.3,0.8c7.3-2.6,12.2-9.5,12.8-17.2c0.2-2.6,0.1-4.8-0.5-6.8L1869,286.5l83.8-82.2c5.8-5.5,8-13.8,5.5-21.4
                C1955.9,175.4,1949.5,170,1941.6,168.8z M1939.2,189.7l-91.6,89.9l21.9,125.6l0.1,0.6l0.1,0.2c0,0.4-0.4,0.8-0.8,0.8
                c-0.1,0-0.3-0.1-0.4-0.1L1755,347.4l-113.2,60l-0.1,0.1c-0.1,0-0.1,0-0.2,0s-0.3,0-0.4-0.1l-0.1-0.1c-0.1-0.1-0.3-0.3-0.3-0.8
                l21.3-126.3l-92-89.2l-0.1-0.1c-0.1-0.1-0.3-0.4-0.2-0.7c0.1-0.4,0.5-0.6,0.7-0.6l126.8-18.9l56.3-115c0.1-0.3,0.4-0.5,0.7-0.5
                c0.3,0,0.6,0.2,0.7,0.5l57.1,114.7l126.7,18c0.2,0,0.6,0.2,0.7,0.6C1939.5,189.4,1939.3,189.6,1939.2,189.7z"/>
            <path fill="#EDAB11" d="M2444.2,168.8l-116.5-16.6l-52.4-105.3c-3.4-6.8-10-11.1-17.5-11.5h-1c-0.4,0-0.8,0-1.1,0h-0.2
                c-7.5,0.4-14.2,4.8-17.5,11.6l-51.7,105.6L2070,170c-7.8,1.2-14.2,6.6-16.7,14.1s-0.3,15.9,5.4,21.4l84.4,81.8l-19.5,115.9
                c-1.4,7.8,1.9,15.8,8.3,20.4c3.2,2.4,7.2,3.8,11.2,4h2.3c3-0.2,5.8-1,8.5-2.4l103.8-55.2l104.2,54.4l0.2,0.1
                c5.4,2.7,11.3,3,17.3,0.8c7.3-2.6,12.2-9.5,12.8-17.2c0.2-2.6,0.1-4.8-0.5-6.8l-20.1-114.8l83.8-82.2c5.8-5.5,8-13.8,5.5-21.4
                C2458.5,175.4,2452.1,170,2444.2,168.8z M2144.1,427.5h-1H2144.1c0.4,0,0.9,0,1.3,0C2145,427.5,2144.5,427.5,2144.1,427.5z
                 M2441.9,189.7l-91.6,89.9l21.9,125.6l0.1,0.6l0.1,0.2c0,0.4-0.4,0.8-0.8,0.8c-0.1,0-0.3-0.1-0.4-0.1l-113.5-59.3l-113.2,60
                l-0.1,0.1c-0.1,0-0.1,0-0.2,0c-0.1,0-0.3,0-0.4-0.1l-0.1-0.1c-0.1-0.1-0.3-0.3-0.3-0.8l21.3-126.3l-92-89.2l-0.1-0.1
                c-0.1-0.1-0.3-0.4-0.2-0.7c0.1-0.4,0.5-0.6,0.7-0.6l126.8-18.9l56.3-115c0.1-0.3,0.4-0.5,0.7-0.5s0.6,0.2,0.7,0.5l57.1,114.7
                l126.7,18c0.2,0,0.6,0.2,0.7,0.6C2442.2,189.4,2442,189.6,2441.9,189.7z"/>
        </g>
    </symbol>

    <symbol id="onestar"  viewBox="0 0 2501.1 462.8">
        <g>
            <path fill="#fff" d="M0,0v462.8h2501.1V0H0z M445,204.3l-83.8,82.2l20.1,114.8c0.3,1.5,0.5,3,0.5,4.7c0,11.5-9.3,20.8-20.8,20.8
                c-3.2,0-6.4-0.8-9.4-2.3l-0.2-0.1L247.2,370l-103.9,55.1c-2.7,1.4-5.5,2.2-8.5,2.4c-0.4,0-0.9,0-1.3,0h-1c-4-0.2-8-1.6-11.2-4
                c-6.4-4.6-9.7-12.6-8.3-20.4l19.5-115.8l-84.4-81.8c-5.7-5.5-7.9-13.9-5.4-21.4s8.9-12.9,16.7-14.1l116.5-17.4L227.6,47
                c3.3-6.8,10-11.2,17.5-11.6c0.3,0,0.7,0,1.1,0h1.2c7.5,0.4,14.1,4.7,17.5,11.5l52.4,105.3l116.5,16.6c7.9,1.2,14.3,6.6,16.7,14.1
                C453,190.5,450.8,198.8,445,204.3z M947.6,204.4l-83.8,82.2l20.1,114.8c0.3,1.5,0.5,3,0.5,4.7c0,11.5-9.3,20.8-20.8,20.8
                c-3.2,0-6.4-0.8-9.4-2.3l-0.2-0.1L749.8,370l-103.9,55.1c-2.7,1.4-5.5,2.2-8.5,2.4c0,0,0.1,0,0.1,0c0,0-0.1,0-0.1,0
                c-0.4,0-0.8,0-1.2,0h-1h-0.1c-4-0.2-8-1.6-11.2-4c-6.4-4.6-9.7-12.6-8.3-20.4l19.5-115.9l-84.4-81.8c-5.7-5.5-7.9-13.9-5.4-21.4
                s8.9-12.9,16.7-14.1l116.5-17.3L730.2,47c3.3-6.8,10-11.2,17.5-11.6h0.1c0.3,0,0.7,0,1.1,0h1.1h0.1H750c7.5,0.4,14.1,4.7,17.5,11.5
                l52.4,105.4l116.5,16.6c7.9,1.2,14.3,6.6,16.7,14.1C955.6,190.6,953.4,198.9,947.6,204.4z M1450.3,204.3l-83.8,82.2l20.1,114.8
                c0.3,1.5,0.5,3,0.5,4.7c0,11.5-9.3,20.8-20.8,20.8c-3.2,0-6.4-0.8-9.4-2.3l-0.2-0.1L1252.5,370l-103.9,55.1
                c-2.7,1.4-5.5,2.2-8.5,2.4c-0.4,0-0.9,0-1.3,0h-1c-4-0.2-8-1.6-11.2-4c-6.4-4.6-9.7-12.6-8.3-20.4l19.5-115.9l-84.4-81.8
                c-5.7-5.5-7.9-13.9-5.4-21.4s8.9-12.9,16.7-14.1l116.5-17.3L1232.9,47c3.3-6.8,10-11.2,17.5-11.6c0.3,0,0.7,0,1.1,0h1.2
                c7.5,0.4,14.1,4.7,17.5,11.5l52.4,105.3l116.5,16.6c7.9,1.2,14.3,6.6,16.7,14.1C1458.3,190.5,1456.1,198.8,1450.3,204.3z
                 M1952.8,204.3l-83.8,82.2l20.1,114.8c0.6,2,0.7,4.2,0.5,6.8c-0.6,7.7-5.5,14.6-12.8,17.2c-6,2.2-11.9,1.9-17.3-0.8l-0.2-0.1
                L1755.1,370l-103.8,55.1c-2.7,1.4-5.5,2.2-8.5,2.4c-0.4,0-0.9,0-1.3,0h-1c-4-0.2-8-1.6-11.2-4c-6.4-4.6-9.7-12.6-8.3-20.4
                l19.3-115.9l-84.4-81.8c-5.7-5.5-7.9-13.9-5.4-21.4s8.9-12.9,16.7-14.1l116.5-17.3L1735.4,47c3.3-6.8,10-11.2,17.5-11.6h0.2
                c0.3,0,0.7,0,1.1,0h1h0.2h-0.2c7.5,0.4,14.1,4.7,17.5,11.5l52.4,105.3l116.5,16.6c7.9,1.2,14.3,6.6,16.7,14.1
                C1960.8,190.5,1958.6,198.8,1952.8,204.3z M2455.4,204.3l-83.8,82.2l20.1,114.8c0.6,2,0.7,4.2,0.5,6.8c-0.6,7.7-5.5,14.6-12.8,17.2
                c-6,2.2-11.9,1.9-17.3-0.8l-0.2-0.1L2257.7,370l-103.8,55.2c-2.7,1.4-5.5,2.2-8.5,2.4h-2.3c-4-0.2-8-1.6-11.2-4
                c-6.4-4.6-9.7-12.6-8.3-20.4l19.5-115.9l-84.4-81.8c-5.7-5.5-7.9-13.9-5.4-21.4s8.9-12.9,16.7-14.1l116.3-17.4L2238,47
                c3.3-6.8,10-11.2,17.5-11.6h0.2c0.3,0,0.7,0,1.1,0h1h0.2h-0.2c7.5,0.4,14.1,4.7,17.5,11.5l52.4,105.3l116.5,16.6
                c7.9,1.2,14.3,6.6,16.7,14.1C2463.4,190.5,2461.2,198.8,2455.4,204.3z"/>


            <path fill="#EDAB11" d="M2444.2,168.8l-116.5-16.6l-52.4-105.3c-3.4-6.8-10-11.1-17.5-11.5h-1c-0.4,0-0.8,0-1.1,0h-0.2
                c-7.5,0.4-14.2,4.8-17.5,11.6l-51.7,105.6L2070,170c-7.8,1.2-14.2,6.6-16.7,14.1s-0.3,15.9,5.4,21.4l84.4,81.8l-19.5,115.9
                c-1.4,7.8,1.9,15.8,8.3,20.4c3.2,2.4,7.2,3.8,11.2,4h2.3c3-0.2,5.8-1,8.5-2.4l103.8-55.2l104.2,54.4l0.2,0.1
                c5.4,2.7,11.3,3,17.3,0.8c7.3-2.6,12.2-9.5,12.8-17.2c0.2-2.6,0.1-4.8-0.5-6.8l-20.1-114.8l83.8-82.2c5.8-5.5,8-13.8,5.5-21.4
                C2458.5,175.4,2452.1,170,2444.2,168.8z M2144.1,427.5h-1H2144.1c0.4,0,0.9,0,1.3,0C2145,427.5,2144.5,427.5,2144.1,427.5z
                 M2441.9,189.7l-91.6,89.9l21.9,125.6l0.1,0.6l0.1,0.2c0,0.4-0.4,0.8-0.8,0.8c-0.1,0-0.3-0.1-0.4-0.1l-113.5-59.3l-113.2,60
                l-0.1,0.1c-0.1,0-0.1,0-0.2,0c-0.1,0-0.3,0-0.4-0.1l-0.1-0.1c-0.1-0.1-0.3-0.3-0.3-0.8l21.3-126.3l-92-89.2l-0.1-0.1
                c-0.1-0.1-0.3-0.4-0.2-0.7c0.1-0.4,0.5-0.6,0.7-0.6l126.8-18.9l56.3-115c0.1-0.3,0.4-0.5,0.7-0.5s0.6,0.2,0.7,0.5l57.1,114.7
                l126.7,18c0.2,0,0.6,0.2,0.7,0.6C2442.2,189.4,2442,189.6,2441.9,189.7z"/>
        </g>
    </symbol>
</svg>


